Camtrap Meta
…
IRFT for the Freeman-Tukey transformed incidence rate (Freeman & Tukey, 1950).

Studies with zero events can be problematic, especially for the log transformed incidence rate. Adding a small constant to the number of events is a common solution to this problem. When to=only0 (the default), the value of add (the default is 1/2; but see Note) is added to xi only in the studies that have zero events. When to=all, the value of add is added to xi in all studies. When to=if0all, the value of add is added to xi in all studies, but only when there is at least one study with zero events. Setting to=none or add=0 has the same effect: No adjustment to the observed number of events is made. Depending on the outcome measure and the data, this may lead to division by zero inside of the function (when this occurs, the resulting value is recoded to NA).

Also see Cochrane handbook ch 6.7

library(tidyverse)
data <- read_csv("C:/Users/Nargol Ghazian/Desktop/PhD-Shelter-Shrub-Climate/Camtrap Review/review.csv") %>% 
  filter(days < 50000 & captures < 80000) %>% 
  rename(n_cams = 'number cams') %>% 
  mutate(n_cams = as.numeric(n_cams)) %>% 
  filter(bait == "no" & ecosystem != "aquatic")#clean up and filter data
data

## # A tibble: 60 x 24
##       ID title  location    lat  long  days captures richness `animal name`
##    <dbl> <chr>  <chr>     <dbl> <dbl> <dbl>    <dbl>    <dbl> <chr>        
##  1   1.1 An ev~ Los Ami~ -12.6  -70.1  1440      508       21 NA           
##  2   1.2 An ev~ NA       -12.6  -70.1  2340      814       27 NA           
##  3   5.1 Monit~ Volcan ~  10.1  -84.1   825    22437       26 NA           
##  4   7.1 Estim~ Udzungw~  -7.7    8.7  1818    10647       26 NA           
##  5   8.1 Rando~ Ruaha N~  -7.65  34.9 10567     5167       41 NA           
##  6   9.1 Oil p~ Danum V~   4.96 118.   1574      688       19 NA           
##  7   9.2 Oil p~ NA         4.96 118.   1191      889       17 NA           
##  8  11.1 Domes~ Santa L~ -20.0  -40.5  2142      292       21 NA           
##  9  13.1 CAMER~ Imbak C~   5.59  11.7  1436     1641       27 NA           
## 10  14.1 Using~ Ngamila~ -19.5   23.6  6607     8668       44 NA           
## # ... with 50 more rows, and 15 more variables: scientific name <chr>,
## #   year <chr>, n_cams <dbl>, bait <chr>, month of study <chr>,
## #   temperature <lgl>, notes <lgl>, mean temp sampling period <dbl>,
## #   max temp sampling period <dbl>, mean annual temp <dbl>, n_sites <dbl>,
## #   sample design <chr>, X22 <dbl>, system <chr>, ecosystem <chr>
…
